lab2/pulsos/30%/FFT 6 (1).csv

Record Length,1024,Points,0.0,-4.58969975,
Sample Interval,49.32133865,Hz,49.32133865,-2.1896999,
Trigger Point,0.0,Samples,98.642677307,-8.589699745,
,,,147.9640198,-45.78969955,
,,,197.28535461,-54.58970261,
,,,246.60668945,-49.38970184,
Source,MATH,,295.92803955,-50.58969879,
Vertical Units,dB,,345.24935913,-53.38970184,
Vertical Scale,10.0000001,,394.57070923,-33.38970184,
Vertical Offset,-26,9897,,443.892059326,-28.18970108,
Horizontal Units,Hz,,493.213378906,-27.38969994,
Horizontal Scale,5.05050532E3,,542.534729004,-28.18970108,
Pt Fmt,Y,,591.856079102,-34.18970108,
Yzero,0.0,,641.177429199,-45.78969955,
,,,690.498718262,-50.18970108,
,,,739.820068359,-57.789699554,
Note,TDS 1012B - 11:49:05 a. m.   30/07/2025,,789.141418457,-48.58969879,
,,,838.462768555,-48.18970108,
,,,887.784118652,-40.58969879,
,,,937.105407715,-34.58969879,
,,,986.426757813,-34.58969879,
,,,1.0357482E3,-35.78969955,
,,,1.0850695E3,-44.58969879,
,,,1.1343908E3,-50.58969879,
,,,1.1837122E3,-46.18970108,
,,,1.2330335E3,-50.18970108,
,,,1.2823549E3,-56.189701080,
,,,1.3316762E3,-46.58969879,
,,,1.3809975E3,-49.78969955,
,,,1.4303189E3,-49.38970184,
,,,1.4796402E3,-41.78969955,
,,,1.5289616E3,-41.38970184,
,,,1.5782829E3,-40.58969879,
,,,1.6276042E3,-44.98970032,
,,,1.6769256E3,-52.98970032,
,,,1.7262469E3,-49.78969955,
,,,1.7755683E3,-54.989700317,
,,,1.8248896E3,-49.38970184,
,,,1.8742109E3,-41.78969955,
,,,1.9235323E3,-37.38970184,
,,,1.9728536E3,-34.98970032,
,,,2.0221750E3,-34.58969879,
,,,2.0714964E3,-36.58969879,
,,,2.1208177E3,-40.98970032,
,,,2.1701390E3,-51.38970184,
,,,2.2194603E3,-50.58969879,
,,,2.2687816E3,-46.58969879,
,,,2.3181031E3,-49.78969955,
,,,2.3674244E3,-44.98970032,
,,,2.4167457E3,-43.78969955,
,,,2.4660670E3,-48.18970108,
,,,2.5153883E3,-48.18970108,
,,,2.5647098E3,-57.389701843,
,,,2.6140311E3,-49.38970184,
,,,2.6633524E3,-46.18970108,
,,,2.7126737E3,-54.58970261,
,,,2.76199500E3,-51.78969955,
,,,2.81131654E3,-48.18970108,
,,,2.86063783E3,-53.38970184,
,,,2.90995912E3,-35.38970184,
,,,2.95928041E3,-28.18970108,
,,,3.00860171E3,-27.78969955,
,,,3.05792324E3,-27.78969955,
,,,3.10724453E3,-34.58969879,
,,,3.15656582E3,-48.18970108,
,,,3.20588712E3,-49.78969955,
,,,3.25520841E3,-56.189701080,
,,,3.30452994E3,-46.18970108,
,,,3.35385123E3,-50.58969879,
,,,3.40317252E3,-5.78970003,
,,,3.45249382E3,210.30008793E-3,
,,,3.50181511E3,610.300064087E-3,
,,,3.55113664E3,210.30008793E-3,
,,,3.60045793E3,-6.98969984,
,,,3.64977923E3,-43.38970184,
,,,3.69910052E3,-45.38970184,
,,,3.74842181E3,-49.38970184,
,,,3.79774334E3,-54.58970261,
,,,3.84706464E3,-46.98970032,
,,,3.89638593E3,-43.38970184,
,,,3.94570722E3,-41.78969955,
,,,3.99502851E3,-40.18970108,
,,,4.04435005E3,-40.98970032,
,,,4.09367134E3,-41.78969955,
,,,4.14299287E3,-45.78969955,
,,,4.19231416E3,-54.989700317,
,,,4.24163546E3,-48.18970108,
,,,4.29095675E3,-48.18970108,
,,,4.34027804E3,-51.78969955,
,,,4.38959933E3,-38.18970108,
,,,4.43892062E3,-33.38970184,
,,,4.48824191E3,-32.58969879,
,,,4.53756320E3,-33.38970184,
,,,4.58688450E3,-38.18970108,
,,,4.63620627E3,-44.98970032,
,,,4.68552757E3,-49.78969955,
,,,4.73484886E3,-52.18970108,
,,,4.78417015E3,-47.78969955,
,,,4.83349144E3,-50.58969879,
,,,4.88281273E3,-43.78969955,
,,,4.93213402E3,-38.98970032,
,,,4.98145531E3,-40.98970032,
,,,5.03077661E3,-42.18970108,
,,,5.08009790E3,-58.589702606,
,,,5.12941968E3,-54.989700317,
,,,5.17874097E3,-47.38970184,
,,,5.22806226E3,-52.98970032,
,,,5.27738355E3,-54.989700317,
,,,5.32670484E3,-46.98970032,
,,,5.37602613E3,-50.58969879,
,,,5.42534743E3,-45.38970184,
,,,5.47466872E3,-38.18970108,
,,,5.52399001E3,-37.38970184,
,,,5.57331130E3,-36.58969879,
,,,5.62263308E3,-42.18970108,
,,,5.67195437E3,-50.98970032,
,,,5.72127566E3,-47.38970184,
,,,5.77059695E3,-50.98970032,
,,,5.81991825E3,-49.78969955,
,,,5.86923954E3,-43.38970184,
,,,5.91856083E3,-36.98970032,
,,,5.96788212E3,-33.78969955,
,,,6.01720341E3,-33.38970184,
,,,6.06652470E3,-34.58969879,
,,,6.11584648E3,-39.38970184,
,,,6.16516777E3,-51.38970184,
,,,6.21448906E3,-50.18970108,
,,,6.26381036E3,-47.78969955,
,,,6.31313165E3,-53.38970184,
,,,6.36245294E3,-46.58969879,
,,,6.41177423E3,-51.38970184,
,,,6.46109552E3,-43.38970184,
,,,6.51041681E3,-43.78969955,
,,,6.55973859E3,-42.58969879,
,,,6.60905988E3,-51.78969955,
,,,6.65838118E3,-44.58969879,
,,,6.70770247E3,-53.38970184,
,,,6.75702376E3,-54.58970261,
,,,6.80634505E3,-44.98970032,
,,,6.85566634E3,-40.98970032,
,,,6.90498763E3,-10.1897001,
,,,6.95430892E3,-4.18970013,
,,,7.00363022E3,-3.78970003,
,,,7.05295200E3,-4.58969975,
,,,7.10227329E3,-11.7897005,
,,,7.15159458E3,-49.78969955,
,,,7.20091587E3,-44.98970032,
,,,7.25023716E3,-53.38970184,
,,,7.29955845E3,-47.78969955,
,,,7.34887974E3,-45.78969955,
,,,7.398201035E3,-37.38970184,
,,,7.447522326E3,-30.98970032,
,,,7.496843618E3,-30.98970032,
,,,7.546165397E3,-31.78969955,
,,,7.595486689E3,-42.18970108,
,,,7.644807980E3,-52.18970108,
,,,7.694129272E3,-48.58969879,
,,,7.743450563E3,-48.98970032,
,,,7.792771855E3,-53.38970184,
,,,7.842093146E3,-46.18970108,
,,,7.891414437E3,-44.18970108,
,,,7.940735729E3,-42.18970108,
,,,7.990057020E3,-38.98970032,
,,,8.039378800E3,-39.78969955,
,,,8.088700091E3,-39.78969955,
,,,8.138021383E3,-44.58969879,
,,,8.187342674E3,-57.789699554,
,,,8.236663477E3,-49.78969955,
,,,8.285985745E3,-51.38970184,
,,,8.335307037E3,-51.78969955,
,,,8.384628328E3,-40.18970108,
,,,8.433949619E3,-35.78969955,
,,,8.483270911E3,-34.58969879,
,,,8.532592202E3,-35.38970184,
,,,8.581913494E3,-38.58969879,
,,,8.631234785E3,-43.78969955,
,,,8.680556076E3,-49.38970184,
,,,8.729877368E3,-53.38970184,
,,,8.779198659E3,-48.58969879,
,,,8.828519951E3,-52.18970108,
,,,8.877841242E3,-44.98970032,
,,,8.927162533E3,-43.38970184,
,,,8.976483825E3,-47.38970184,
,,,9.025805116E3,-52.58969879,
,,,9.075126408E3,-50.58969879,
,,,9.124447699E3,-53.38970184,
,,,9.173768990E3,-46.98970032,
,,,9.223090282E3,-51.78969955,
,,,9.272412550E3,-50.58969879,
,,,9.321733841E3,-46.18970108,
,,,9.371055133E3,-50.18970108,
,,,9.420376424E3,-39.38970184,
,,,9.469697715E3,-33.38970184,
,,,9.519019007E3,-32.98970032,
,,,9.568340298E3,-33.38970184,
,,,9.617661590E3,-39.78969955,
,,,9.666982881E3,-49.78969955,
,,,9.716304172E3,-48.18970108,
,,,9.765625464E3,-56.189701080,
,,,9.814946755E3,-50.58969879,
,,,9.864268047E3,-42.98970032,
,,,9.913589338E3,-33.38970184,
,,,9.962910629E3,-28.98970032,
,,,10.0122319E3,-28.58970070,
,,,10.0615532E3,-29.38969994,
,,,10.1108745E3,-35.78969955,
,,,10.1601958E3,-52.18970108,
,,,10.2095181E3,-48.18970108,
,,,10.2588394E3,-48.98970032,
,,,10.3081606E3,-53.38970184,
,,,10.3574819E3,-42.18970108,
,,,10.4068032E3,-22.18970108,
,,,10.4561245E3,-16.9897003,
,,,10.5054458E3,-16.5897007,
,,,10.5547671E3,-17.3896999,
,,,10.6040884E3,-24.58970070,
,,,10.6534097E3,-51.38970184,
,,,10.7027310E3,-54.989700317,
,,,10.7520523E3,-46.58969879,
,,,10.8013736E3,-46.18970108,
,,,10.8506949E3,-49.38970184,
,,,10.9000161E3,-32.58969879,
,,,10.9493374E3,-27.78969955,
,,,10.9986587E3,-27.78969955,
,,,11.0479800E3,-28.58970070,
,,,11.0973013E3,-36.18970108,
,,,11.1466226E3,-48.58969879,
,,,11.1959449E3,-48.18970108,
,,,11.2452662E3,-54.58970261,
,,,11.2945875E3,-47.38970184,
,,,11.3439087E3,-46.58969879,
,,,11.3932300E3,-44.18970108,
,,,11.4425513E3,-38.98970032,
,,,11.4918726E3,-40.58969879,
,,,11.5411939E3,-42.18970108,
,,,11.5905152E3,-64.589698792,
,,,11.6398365E3,-51.38970184,
,,,11.6891578E3,-47.78969955,
,,,11.7384791E3,-48.58969879,
,,,11.7878004E3,-52.98970032,
,,,11.8371217E3,-46.18970108,
,,,11.8864429E3,-44.58969879,
,,,11.9357642E3,-40.98970032,
,,,11.9850855E3,-36.98970032,
,,,12.0344068E3,-37.38970184,
,,,12.0837281E3,-37.78969955,
,,,12.1330494E3,-43.38970184,
,,,12.1823717E3,-54.58970261,
,,,12.2316930E3,-47.38970184,
,,,12.2810143E3,-49.78969955,
,,,12.3303355E3,-52.18970108,
,,,12.3796568E3,-40.98970032,
,,,12.4289781E3,-37.38970184,
,,,12.4782994E3,-35.78969955,
,,,12.5276207E3,-36.18970108,
,,,12.5769420E3,-38.98970032,
,,,12.6262633E3,-42.98970032,
,,,12.6755846E3,-50.58969879,
,,,12.7249059E3,-56.189701080,
,,,12.7742272E3,-49.38970184,
,,,12.8235485E3,-50.98970032,
,,,12.8728698E3,-46.58969879,
,,,12.9221910E3,-53.38970184,
,,,12.9715123E3,-44.98970032,
,,,13.0208336E3,-44.98970032,
,,,13.0701549E3,-42.18970108,
,,,13.1194772E3,-48.18970108,
,,,13.1687985E3,-47.38970184,
,,,13.2181198E3,-58.589702606,
,,,13.2674411E3,-49.78969955,
,,,13.3167624E3,-46.58969879,
,,,13.3660836E3,-48.18970108,
,,,13.4154049E3,-31.38969994,
,,,13.4647262E3,-26.18970108,
,,,13.5140475E3,-25.78969955,
,,,13.5633688E3,-26.18970108,
,,,13.6126901E3,-34.18970108,
,,,13.6620114E3,-46.58969879,
,,,13.7113327E3,-46.58969879,
,,,13.7606540E3,-51.78969955,
,,,13.8099753E3,-48.58969879,
,,,13.8592966E3,-52.58969879,
,,,13.9086178E3,-20.18970108,
,,,13.9579391E3,-14.5896997,
,,,14.0072604E3,-14.5896997,
,,,14.0565817E3,-15.3896999,
,,,14.1059040E3,-23.78969955,
,,,14.1552253E3,-44.58969879,
,,,14.2045466E3,-48.98970032,
,,,14.2538679E3,-49.78969955,
,,,14.3031892E3,-54.58970261,
,,,14.3525104E3,-45.78969955,
,,,14.4018317E3,-37.38970184,
,,,14.4511530E3,-33.78969955,
,,,14.5004743E3,-32.98970032,
,,,14.5497956E3,-33.78969955,
,,,14.5991169E3,-37.38970184,
,,,14.6484382E3,-44.58969879,
,,,14.6977595E3,-56.189701080,
,,,14.7470808E3,-50.98970032,
,,,14.7964021E3,-48.98970032,
,,,14.8457234E3,-52.18970108,
,,,14.8950447E3,-37.38970184,
,,,14.9443659E3,-32.98970032,
,,,14.9936872E3,-32.98970032,
,,,15.0430085E3,-33.78969955,
,,,15.0923308E3,-39.78969955,
,,,15.1416521E3,-45.78969955,
,,,15.1909734E3,-46.98970032,
,,,15.2402947E3,-53.38970184,
,,,15.2896160E3,-47.38970184,
,,,15.3389373E3,-47.38970184,
,,,15.3882585E3,-46.58969879,
,,,15.4375798E3,-44.98970032,
,,,15.4869011E3,-48.58969879,
,,,15.5362224E3,-50.18970108,
,,,15.5855437E3,-48.18970108,
,,,15.6348650E3,-50.98970032,
,,,15.6841863E3,-47.78969955,
,,,15.7335076E3,-51.38970184,
,,,15.7828289E3,-54.989700317,
,,,15.8321502E3,-46.18970108,
,,,15.8814715E3,-44.98970032,
,,,15.9307927E3,-38.98970032,
,,,15.9801140E3,-35.38970184,
,,,16.0294363E3,-35.38970184,
,,,16.0787576E3,-35.78969955,
,,,16.1280789E3,-42.18970108,
,,,16.1774002E3,-53.38970184,
,,,16.2267215E3,-49.38970184,
,,,16.2760428E3,-53.38970184,
,,,16.3253641E3,-49.38970184,
,,,16.3746853E3,-41.78969955,
,,,16.4240066E3,-37.38970184,
,,,16.4733270E3,-35.38970184,
,,,16.5226492E3,-34.98970032,
,,,16.5719715E3,-36.58969879,
,,,16.6212918E3,-40.98970032,
,,,16.6706141E3,-49.38970184,
,,,16.7199344E3,-54.989700317,
,,,16.7692567E3,-48.18970108,
,,,16.8185770E3,-54.989700317,
,,,16.8678992E3,-49.38970184,
,,,16.9172196E3,-39.38970184,
,,,16.9665418E3,-32.58969879,
,,,17.0158621E3,-32.18970108,
,,,17.0651844E3,-32.18970108,
,,,17.1145047E3,-43.38970184,
,,,17.1638270E3,-45.78969955,
,,,17.2131473E3,-53.38970184,
,,,17.2624696E3,-53.38970184,
,,,17.3117899E3,-44.58969879,
,,,17.3611122E3,-41.78969955,
,,,17.4104325E3,-16.5897007,
,,,17.4597547E3,-11.7897005,
,,,17.5090770E3,-11.3896999,
,,,17.5583973E3,-12.5896997,
,,,17.6077196E3,-20.98970032,
,,,17.6570399E3,-47.78969955,
,,,17.7063622E3,-46.18970108,
,,,17.7556825E3,-57.389701843,
,,,17.8050048E3,-49.38970184,
,,,17.8543251E3,-47.38970184,
,,,17.9036473E3,-40.58969879,
,,,17.9529676E3,-35.78969955,
,,,18.0022899E3,-36.98970032,
,,,18.0516102E3,-38.58969879,
,,,18.1009325E3,-60.589702606,
,,,18.1502528E3,-49.38970184,
,,,18.1995751E3,-50.18970108,
,,,18.2488954E3,-50.18970108,
,,,18.2982177E3,-54.58970261,
,,,18.3475380E3,-46.58969879,
,,,18.3968602E3,-40.58969879,
,,,18.4461806E3,-36.98970032,
,,,18.4955028E3,-35.78969955,
,,,18.5448251E3,-36.18970108,
,,,18.5941454E3,-38.58969879,
,,,18.6434677E3,-44.18970108,
,,,18.6927880E3,-52.58969879,
,,,18.7421103E3,-48.18970108,
,,,18.7914306E3,-48.58969879,
,,,18.8407528E3,-53.38970184,
,,,18.8900732E3,-40.18970108,
,,,18.9393954E3,-36.58969879,
,,,18.9887157E3,-36.18970108,
,,,19.0380380E3,-36.98970032,
,,,19.0873583E3,-42.58969879,
,,,19.1366806E3,-45.38970184,
,,,19.1860009E3,-48.98970032,
,,,19.2353232E3,-60.589702606,
,,,19.2846435E3,-49.38970184,
,,,19.3339658E3,-49.38970184,
,,,19.3832861E3,-48.58969879,
,,,19.4326083E3,-60.589702606,
,,,19.4819306E3,-46.58969879,
,,,19.5312509E3,-46.18970108,
,,,19.5805732E3,-42.58969879,
,,,19.6298935E3,-50.18970108,
,,,19.6792158E3,-46.58969879,
,,,19.7285361E3,-51.38970184,
,,,19.7778584E3,-54.58970261,
,,,19.8271787E3,-47.38970184,
,,,19.8765009E3,-45.78969955,
,,,19.9258213E3,-36.58969879,
,,,19.9751435E3,-32.18970108,
,,,20.0244638E3,-31.38969994,
,,,20.0737861E3,-32.18970108,
,,,20.12310642E3,-39.78969955,
,,,20.17242869E3,-51.78969955,
,,,20.22174901E3,-49.38970184,
,,,20.27107128E3,-52.18970108,
,,,20.32039159E3,-53.38970184,
,,,20.36971386E3,-42.58969879,
,,,20.41903613E3,-34.98970032,
,,,20.46835644E3,-31.78969955,
,,,20.51767871E3,-31.38969994,
,,,20.56699902E3,-32.58969879,
,,,20.61632129E3,-38.58969879,
,,,20.66564161E3,-51.38970184,
,,,20.71496387E3,-51.38970184,
,,,20.76428419E3,-49.38970184,
,,,20.81360646E3,-50.58969879,
,,,20.86292677E3,-40.18970108,
,,,20.91224904E3,-21.78969955,
,,,20.96156935E3,-17.3896999,
,,,21.01089162E3,-16.9897003,
,,,21.06021194E3,-18.1897011,
,,,21.10953421E3,-26.58970070,
,,,21.15885452E3,-50.58969879,
,,,21.20817679E3,-52.18970108,
,,,21.25749710E3,-48.98970032,
,,,21.30681937E3,-45.78969955,
,,,21.35613969E3,-52.58969879,
,,,21.40546195E3,-32.98970032,
,,,21.45478422E3,-28.58970070,
,,,21.50410454E3,-28.58970070,
,,,21.55342680E3,-29.78969955,
,,,21.60274712E3,-38.58969879,
,,,21.65206939E3,-50.58969879,
,,,21.70138970E3,-47.78969955,
,,,21.75071197E3,-54.989700317,
,,,21.80003229E3,-48.18970108,
,,,21.84935455E3,-46.18970108,
,,,21.89867487E3,-48.18970108,
,,,21.94799714E3,-46.58969879,
,,,21.99731745E3,-50.58969879,
,,,22.04663972E3,-51.78969955,
,,,22.09596003E3,-46.18970108,
,,,22.14528230E3,-48.58969879,
,,,22.19460262E3,-48.98970032,
,,,22.24392488E3,-50.58969879,
,,,22.29324520E3,-57.389701843,
,,,22.34256747E3,-47.38970184,
,,,22.39188974E3,-42.58969879,
,,,22.44121005E3,-38.18970108,
,,,22.49053232E3,-35.78969955,
,,,22.53985263E3,-35.78969955,
,,,22.58917490E3,-37.38970184,
,,,22.63849522E3,-42.98970032,
,,,22.68781748E3,-53.38970184,
,,,22.73713780E3,-47.38970184,
,,,22.78646007E3,-47.78969955,
,,,22.83578038E3,-53.38970184,
,,,22.88510265E3,-41.38970184,
,,,22.93442296E3,-38.58969879,
,,,22.98374523E3,-38.18970108,
,,,23.03306555E3,-38.98970032,
,,,23.08238782E3,-42.18970108,
,,,23.13170813E3,-44.98970032,
,,,23.18103040E3,-48.98970032,
,,,23.23035071E3,-53.38970184,
,,,23.27967298E3,-48.58969879,
,,,23.32899525E3,-51.38970184,
,,,23.37831556E3,-51.78969955,
,,,23.42763783E3,-45.78969955,
,,,23.47695815E3,-37.78969955,
,,,23.52628041E3,-36.98970032,
,,,23.57560073E3,-36.58969879,
,,,23.62492300E3,-46.98970032,
,,,23.67424331E3,-47.38970184,
,,,23.72356558E3,-54.58970261,
,,,23.77288589E3,-50.58969879,
,,,23.82220816E3,-47.38970184,
,,,23.87152848E3,-42.98970032,
,,,23.92085075E3,-28.98970032,
,,,23.97017106E3,-24.58970070,
,,,24.01949333E3,-24.58970070,
,,,24.06881364E3,-25.38969994,
,,,24.11813591E3,-34.18970108,
,,,24.16745623E3,-50.98970032,
,,,24.21677849E3,-50.98970032,
,,,24.26609881E3,-57.789699554,
,,,24.31542108E3,-47.78969955,
,,,24.36474334E3,-46.58969879,
,,,24.41406366E3,-30.98970032,
,,,24.46338593E3,-26.18970108,
,,,24.51270624E3,-26.18970108,
,,,24.56202851E3,-27.38969994,
,,,24.61134883E3,-40.58969879,
,,,24.66067109E3,-44.98970032,
,,,24.70999141E3,-52.18970108,
,,,24.75931368E3,-50.58969879,
,,,24.80863399E3,-53.38970184,
,,,24.85795626E3,-44.98970032,
,,,24.90727657E3,-34.58969879,
,,,24.95659884E3,-30.98970032,
,,,25.00591916E3,-30.58970070,
,,,25.05524142E3,-31.78969955,
,,,25.10456174E3,-37.38970184,
,,,25.15388401E3,-45.78969955,
,,,25.20320432E3,-53.38970184,
,,,25.25252659E3,-49.78969955,
,,,25.30184886E3,-46.58969879,
,,,25.35116917E3,-54.989700317,
,,,25.40049144E3,-37.78969955,
,,,25.44981176E3,-33.78969955,
,,,25.49913402E3,-34.18970108,
,,,25.54845434E3,-35.78969955,
,,,25.59777661E3,-44.58969879,
,,,25.64709692E3,-47.38970184,
,,,25.69641919E3,-45.78969955,
,,,25.74573950E3,-53.38970184,
,,,25.79506177E3,-50.58969879,
,,,25.84438209E3,-46.58969879,
,,,25.89370435E3,-49.78969955,
,,,25.94302467E3,-64.589698792,
,,,25.99234694E3,-46.18970108,
,,,26.04166725E3,-44.98970032,
,,,26.09098952E3,-42.18970108,
,,,26.14030984E3,-49.78969955,
,,,26.18963210E3,-48.98970032,
,,,26.23895437E3,-49.38970184,
,,,26.28827469E3,-52.98970032,
,,,26.33759695E3,-47.38970184,
,,,26.38691727E3,-42.98970032,
,,,26.43623954E3,-37.38970184,
,,,26.48555985E3,-34.58969879,
,,,26.53488212E3,-34.58969879,
,,,26.58420243E3,-36.18970108,
,,,26.63352470E3,-42.98970032,
,,,26.68284502E3,-56.189701080,
,,,26.73216729E3,-49.78969955,
,,,26.78148760E3,-50.58969879,
,,,26.83080987E3,-53.38970184,
,,,26.88013018E3,-42.18970108,
,,,26.92945245E3,-39.78969955,
,,,26.97877277E3,-39.78969955,
,,,27.02809503E3,-39.78969955,
,,,27.07741535E3,-42.98970032,
,,,27.12673762E3,-44.58969879,
,,,27.17605793E3,-50.18970108,
,,,27.22538020E3,-55.389701843,
,,,27.27470247E3,-47.78969955,
,,,27.32402278E3,-50.58969879,
,,,27.37334505E3,-58.589702606,
,,,27.42266537E3,-31.78969955,
,,,27.47198763E3,-26.98970032,
,,,27.52130795E3,-26.98970032,
,,,27.57063022E3,-28.18970108,
,,,27.61995053E3,-39.38970184,
,,,27.66927280E3,-45.38970184,
,,,27.71859311E3,-55.389701843,
,,,27.76791538E3,-55.389701843,
,,,27.81723570E3,-43.38970184,
,,,27.86655796E3,-41.78969955,
,,,27.91587828E3,-20.18970108,
,,,27.96520055E3,-16.1897011,
,,,28.01452086E3,-16.1897011,
,,,28.06384313E3,-17.7896996,
,,,28.11316344E3,-27.78969955,
,,,28.16248571E3,-48.98970032,
,,,28.21180798E3,-46.18970108,
,,,28.26112830E3,-58.589702606,
,,,28.31045056E3,-49.38970184,
,,,28.35977088E3,-44.98970032,
,,,28.40909315E3,-52.98970032,
,,,28.45841346E3,-53.38970184,
,,,28.50773573E3,-54.989700317,
,,,28.55705604E3,-52.18970108,
,,,28.60637831E3,-45.78969955,
,,,28.65569863E3,-50.18970108,
,,,28.70502089E3,-49.38970184,
,,,28.75434121E3,-47.78969955,
,,,28.80366348E3,-51.38970184,
,,,28.85298379E3,-46.98970032,
,,,28.90230606E3,-37.78969955,
,,,28.95162638E3,-34.58969879,
,,,29.00094864E3,-33.78969955,
,,,29.05026896E3,-34.98970032,
,,,29.09959123E3,-39.38970184,
,,,29.14891349E3,-45.78969955,
,,,29.19823381E3,-53.38970184,
,,,29.24755608E3,-49.78969955,
,,,29.29687639E3,-49.38970184,
,,,29.34619866E3,-55.389701843,
,,,29.39551897E3,-39.38970184,
,,,29.44484124E3,-37.38970184,
,,,29.49416156E3,-38.18970108,
,,,29.54348383E3,-39.78969955,
,,,29.59280414E3,-48.18970108,
,,,29.64212641E3,-46.58969879,
,,,29.69144672E3,-46.98970032,
,,,29.74076899E3,-57.389701843,
,,,29.79008931E3,-48.58969879,
,,,29.83941157E3,-47.38970184,
,,,29.88873189E3,-53.38970184,
,,,29.93805416E3,-46.18970108,
,,,29.98737447E3,-39.78969955,
,,,30.03669674E3,-39.78969955,
,,,30.08601705E3,-38.58969879,
,,,30.13533932E3,-48.98970032,
,,,30.18466159E3,-46.58969879,
,,,30.23398190E3,-50.18970108,
,,,30.28330417E3,-53.38970184,
,,,30.33262449E3,-46.58969879,
,,,30.38194676E3,-41.38970184,
,,,30.43126707E3,-34.58969879,
,,,30.48058934E3,-31.38969994,
,,,30.52990965E3,-31.38969994,
,,,30.57923192E3,-32.98970032,
,,,30.62855224E3,-40.58969879,
,,,30.67787450E3,-52.18970108,
,,,30.72719482E3,-48.18970108,
,,,30.77651709E3,-49.38970184,
,,,30.82583740E3,-53.38970184,
,,,30.87515967E3,-44.58969879,
,,,30.92447998E3,-41.78969955,
,,,30.97380225E3,-40.98970032,
,,,31.02312257E3,-40.58969879,
,,,31.07244484E3,-42.18970108,
,,,31.12176710E3,-43.38970184,
,,,31.17108742E3,-49.38970184,
,,,31.22040969E3,-53.38970184,
,,,31.26973000E3,-49.78969955,
,,,31.31905227E3,-47.38970184,
,,,31.36837258E3,-38.18970108,
,,,31.41769485E3,-21.78969955,
,,,31.46701517E3,-18.1897011,
,,,31.51633743E3,-18.1897011,
,,,31.56565775E3,-19.7896996,
,,,31.61498002E3,-29.38969994,
,,,31.66430033E3,-52.58969879,
,,,31.71362260E3,-50.98970032,
,,,31.76294291E3,-50.58969879,
,,,31.81226518E3,-45.38970184,
,,,31.86158550E3,-51.38970184,
,,,31.91090777E3,-34.18970108,
,,,31.96022808E3,-30.58970070,
