lab2/señal triangular/offset/señal con offset/TRIANGULA CON OFFSET (2).csv

Record Length,1024,Points,0.0,3.43089938,
Sample Interval,49.32133865,Hz,49.32133865,6.23089933,
Trigger Point,0.0,Samples,98.642677307,-569.100618362E-3,
,,,147.9640198,-60.969100952,
,,,197.28535461,-60.969100952,
,,,246.60668945,-60.969100952,
Source,MATH,,295.92803955,-60.969100952,
Vertical Units,dB,,345.24935913,-60.969100952,
Vertical Scale,10.0000001,,394.57070923,-58.569103241,
Vertical Offset,-20,9691,,443.892059326,-58.569103241,
Horizontal Units,Hz,,493.213378906,-60.969100952,
Horizontal Scale,5.05050532E3,,542.534729004,-58.569103241,
Pt Fmt,Y,,591.856079102,-60.969100952,
Yzero,0.0,,641.177429199,-60.969100952,
,,,690.498718262,-60.969100952,
,,,739.820068359,-60.969100952,
Note,TDS 2012C - 1:00:06 p. m.   1/08/2025,,789.141418457,-60.969100952,
,,,838.462768555,-60.969100952,
,,,887.784118652,-60.969100952,
,,,937.105407715,-60.969100952,
,,,986.426757813,-60.969100952,
,,,1.0357482E3,-60.969100952,
,,,1.0850695E3,-60.969100952,
,,,1.1343908E3,-60.969100952,
,,,1.1837122E3,-60.969100952,
,,,1.2330335E3,-60.969100952,
,,,1.2823549E3,-60.969100952,
,,,1.3316762E3,-58.569103241,
,,,1.3809975E3,-55.369102478,
,,,1.4303189E3,-55.369102478,
,,,1.4796402E3,-58.569103241,
,,,1.5289616E3,-58.569103241,
,,,1.5782829E3,-54.56910324,
,,,1.6276042E3,-60.969100952,
,,,1.6769256E3,-60.969100952,
,,,1.7262469E3,-60.969100952,
,,,1.7755683E3,-58.569103241,
,,,1.8248896E3,-60.969100952,
,,,1.8742109E3,-60.969100952,
,,,1.9235323E3,-55.369102478,
,,,1.9728536E3,-55.369102478,
,,,2.0221750E3,-60.969100952,
,,,2.0714964E3,-58.569103241,
,,,2.1208177E3,-60.969100952,
,,,2.1701390E3,-58.569103241,
,,,2.2194603E3,-60.969100952,
,,,2.2687816E3,-60.969100952,
,,,2.3181031E3,-60.969100952,
,,,2.3674244E3,-60.969100952,
,,,2.4167457E3,-60.969100952,
,,,2.4660670E3,-58.569103241,
,,,2.5153883E3,-60.969100952,
,,,2.5647098E3,-58.569103241,
,,,2.6140311E3,-58.569103241,
,,,2.6633524E3,-60.969100952,
,,,2.7126737E3,-60.969100952,
,,,2.76199500E3,-60.969100952,
,,,2.81131654E3,-60.969100952,
,,,2.86063783E3,-60.969100952,
,,,2.90995912E3,-58.569103241,
,,,2.95928041E3,-60.969100952,
,,,3.00860171E3,-60.969100952,
,,,3.05792324E3,-58.569103241,
,,,3.10724453E3,-58.569103241,
,,,3.15656582E3,-54.56910324,
,,,3.20588712E3,-58.569103241,
,,,3.25520841E3,-55.369102478,
,,,3.30452994E3,-60.969100952,
,,,3.35385123E3,-45.36910248,
,,,3.40317252E3,-7.769100666,
,,,3.45249382E3,-1.7691007,
,,,3.50181511E3,-1.3691007,
,,,3.55113664E3,-1.7691007,
,,,3.60045793E3,-8.969100952,
,,,3.64977923E3,-45.76910019,
,,,3.69910052E3,-58.569103241,
,,,3.74842181E3,-60.969100952,
,,,3.79774334E3,-60.969100952,
,,,3.84706464E3,-60.969100952,
,,,3.89638593E3,-58.569103241,
,,,3.94570722E3,-60.969100952,
,,,3.99502851E3,-60.969100952,
,,,4.04435005E3,-60.969100952,
,,,4.09367134E3,-60.969100952,
,,,4.14299287E3,-60.969100952,
,,,4.19231416E3,-60.969100952,
,,,4.24163546E3,-60.969100952,
,,,4.29095675E3,-60.969100952,
,,,4.34027804E3,-60.969100952,
,,,4.38959933E3,-60.969100952,
,,,4.43892062E3,-60.969100952,
,,,4.48824191E3,-60.969100952,
,,,4.53756320E3,-54.56910324,
,,,4.58688450E3,-55.369102478,
,,,4.63620627E3,-55.369102478,
,,,4.68552757E3,-60.969100952,
,,,4.73484886E3,-58.569103241,
,,,4.78417015E3,-60.969100952,
,,,4.83349144E3,-60.969100952,
,,,4.88281273E3,-60.969100952,
,,,4.93213402E3,-58.569103241,
,,,4.98145531E3,-60.969100952,
,,,5.03077661E3,-60.969100952,
,,,5.08009790E3,-60.969100952,
,,,5.12941968E3,-60.969100952,
,,,5.17874097E3,-60.969100952,
,,,5.22806226E3,-60.969100952,
,,,5.27738355E3,-58.569103241,
,,,5.32670484E3,-60.969100952,
,,,5.37602613E3,-58.569103241,
,,,5.42534743E3,-60.969100952,
,,,5.47466872E3,-60.969100952,
,,,5.52399001E3,-58.569103241,
,,,5.57331130E3,-55.369102478,
,,,5.62263308E3,-60.969100952,
,,,5.67195437E3,-60.969100952,
,,,5.72127566E3,-58.569103241,
,,,5.77059695E3,-58.569103241,
,,,5.81991825E3,-60.969100952,
,,,5.86923954E3,-60.969100952,
,,,5.91856083E3,-58.569103241,
,,,5.96788212E3,-58.569103241,
,,,6.01720341E3,-58.569103241,
,,,6.06652470E3,-60.969100952,
,,,6.11584648E3,-58.569103241,
,,,6.16516777E3,-60.969100952,
,,,6.21448906E3,-60.969100952,
,,,6.26381036E3,-60.969100952,
,,,6.31313165E3,-58.569103241,
,,,6.36245294E3,-60.969100952,
,,,6.41177423E3,-60.969100952,
,,,6.46109552E3,-54.56910324,
,,,6.51041681E3,-54.56910324,
,,,6.55973859E3,-54.56910324,
,,,6.60905988E3,-58.569103241,
,,,6.65838118E3,-60.969100952,
,,,6.70770247E3,-60.969100952,
,,,6.75702376E3,-60.969100952,
,,,6.80634505E3,-60.969100952,
,,,6.85566634E3,-60.969100952,
,,,6.90498763E3,-60.969100952,
,,,6.95430892E3,-54.56910324,
,,,7.00363022E3,-60.969100952,
,,,7.05295200E3,-60.969100952,
,,,7.10227329E3,-58.569103241,
,,,7.15159458E3,-60.969100952,
,,,7.20091587E3,-60.969100952,
,,,7.25023716E3,-60.969100952,
,,,7.29955845E3,-60.969100952,
,,,7.34887974E3,-60.969100952,
,,,7.398201035E3,-60.969100952,
,,,7.447522326E3,-60.969100952,
,,,7.496843618E3,-60.969100952,
,,,7.546165397E3,-60.969100952,
,,,7.595486689E3,-60.969100952,
,,,7.644807980E3,-55.369102478,
,,,7.694129272E3,-60.969100952,
,,,7.743450563E3,-58.569103241,
,,,7.792771855E3,-60.969100952,
,,,7.842093146E3,-58.569103241,
,,,7.891414437E3,-54.56910324,
,,,7.940735729E3,-54.56910324,
,,,7.990057020E3,-60.969100952,
,,,8.039378800E3,-60.969100952,
,,,8.088700091E3,-60.969100952,
,,,8.138021383E3,-60.969100952,
,,,8.187342674E3,-58.569103241,
,,,8.236663477E3,-58.569103241,
,,,8.285985745E3,-60.969100952,
,,,8.335307037E3,-60.969100952,
,,,8.384628328E3,-60.969100952,
,,,8.433949619E3,-60.969100952,
,,,8.483270911E3,-60.969100952,
,,,8.532592202E3,-58.569103241,
,,,8.581913494E3,-60.969100952,
,,,8.631234785E3,-60.969100952,
,,,8.680556076E3,-60.969100952,
,,,8.729877368E3,-60.969100952,
,,,8.779198659E3,-60.969100952,
,,,8.828519951E3,-60.969100952,
,,,8.877841242E3,-60.969100952,
,,,8.927162533E3,-60.969100952,
,,,8.976483825E3,-60.969100952,
,,,9.025805116E3,-55.369102478,
,,,9.075126408E3,-60.969100952,
,,,9.124447699E3,-58.569103241,
,,,9.173768990E3,-60.969100952,
,,,9.223090282E3,-60.969100952,
,,,9.272412550E3,-60.969100952,
,,,9.321733841E3,-60.969100952,
,,,9.371055133E3,-60.969100952,
,,,9.420376424E3,-60.969100952,
,,,9.469697715E3,-55.369102478,
,,,9.519019007E3,-60.969100952,
,,,9.568340298E3,-60.969100952,
,,,9.617661590E3,-60.969100952,
,,,9.666982881E3,-60.969100952,
,,,9.716304172E3,-60.969100952,
,,,9.765625464E3,-60.969100952,
,,,9.814946755E3,-60.969100952,
,,,9.864268047E3,-60.969100952,
,,,9.913589338E3,-60.969100952,
,,,9.962910629E3,-60.969100952,
,,,10.0122319E3,-60.969100952,
,,,10.0615532E3,-60.969100952,
,,,10.1108745E3,-60.969100952,
,,,10.1601958E3,-60.969100952,
,,,10.2095181E3,-54.56910324,
,,,10.2588394E3,-60.969100952,
,,,10.3081606E3,-55.369102478,
,,,10.3574819E3,-51.36910248,
,,,10.4068032E3,-26.16910172,
,,,10.4561245E3,-20.96910095,
,,,10.5054458E3,-20.56910133,
,,,10.5547671E3,-21.36910057,
,,,10.6040884E3,-29.36910057,
,,,10.6534097E3,-54.56910324,
,,,10.7027310E3,-60.969100952,
,,,10.7520523E3,-60.969100952,
,,,10.8013736E3,-60.969100952,
,,,10.8506949E3,-60.969100952,
,,,10.9000161E3,-60.969100952,
,,,10.9493374E3,-60.969100952,
,,,10.9986587E3,-60.969100952,
,,,11.0479800E3,-60.969100952,
,,,11.0973013E3,-60.969100952,
,,,11.1466226E3,-60.969100952,
,,,11.1959449E3,-58.569103241,
,,,11.2452662E3,-60.969100952,
,,,11.2945875E3,-60.969100952,
,,,11.3439087E3,-60.969100952,
,,,11.3932300E3,-60.969100952,
,,,11.4425513E3,-54.56910324,
,,,11.4918726E3,-60.969100952,
,,,11.5411939E3,-55.369102478,
,,,11.5905152E3,-55.369102478,
,,,11.6398365E3,-60.969100952,
,,,11.6891578E3,-58.569103241,
,,,11.7384791E3,-60.969100952,
,,,11.7878004E3,-60.969100952,
,,,11.8371217E3,-58.569103241,
,,,11.8864429E3,-60.969100952,
,,,11.9357642E3,-60.969100952,
,,,11.9850855E3,-60.969100952,
,,,12.0344068E3,-60.969100952,
,,,12.0837281E3,-60.969100952,
,,,12.1330494E3,-60.969100952,
,,,12.1823717E3,-60.969100952,
,,,12.2316930E3,-60.969100952,
,,,12.2810143E3,-60.969100952,
,,,12.3303355E3,-60.969100952,
,,,12.3796568E3,-55.369102478,
,,,12.4289781E3,-58.569103241,
,,,12.4782994E3,-52.56910324,
,,,12.5276207E3,-55.369102478,
,,,12.5769420E3,-55.369102478,
,,,12.6262633E3,-54.56910324,
,,,12.6755846E3,-60.969100952,
,,,12.7249059E3,-60.969100952,
,,,12.7742272E3,-60.969100952,
,,,12.8235485E3,-60.969100952,
,,,12.8728698E3,-60.969100952,
,,,12.9221910E3,-60.969100952,
,,,12.9715123E3,-60.969100952,
,,,13.0208336E3,-60.969100952,
,,,13.0701549E3,-60.969100952,
,,,13.1194772E3,-58.569103241,
,,,13.1687985E3,-58.569103241,
,,,13.2181198E3,-60.969100952,
,,,13.2674411E3,-60.969100952,
,,,13.3167624E3,-60.969100952,
,,,13.3660836E3,-60.969100952,
,,,13.4154049E3,-55.369102478,
,,,13.4647262E3,-51.76910019,
,,,13.5140475E3,-55.369102478,
,,,13.5633688E3,-54.56910324,
,,,13.6126901E3,-58.569103241,
,,,13.6620114E3,-60.969100952,
,,,13.7113327E3,-60.969100952,
,,,13.7606540E3,-60.969100952,
,,,13.8099753E3,-54.56910324,
,,,13.8592966E3,-54.56910324,
,,,13.9086178E3,-54.56910324,
,,,13.9579391E3,-54.56910324,
,,,14.0072604E3,-54.56910324,
,,,14.0565817E3,-58.569103241,
,,,14.1059040E3,-58.569103241,
,,,14.1552253E3,-58.569103241,
,,,14.2045466E3,-60.969100952,
,,,14.2538679E3,-60.969100952,
,,,14.3031892E3,-60.969100952,
,,,14.3525104E3,-60.969100952,
,,,14.4018317E3,-55.369102478,
,,,14.4511530E3,-54.56910324,
,,,14.5004743E3,-58.569103241,
,,,14.5497956E3,-54.56910324,
,,,14.5991169E3,-55.369102478,
,,,14.6484382E3,-54.56910324,
,,,14.6977595E3,-58.569103241,
,,,14.7470808E3,-60.969100952,
,,,14.7964021E3,-60.969100952,
,,,14.8457234E3,-58.569103241,
,,,14.8950447E3,-60.969100952,
,,,14.9443659E3,-55.369102478,
,,,14.9936872E3,-54.56910324,
,,,15.0430085E3,-54.56910324,
,,,15.0923308E3,-54.56910324,
,,,15.1416521E3,-60.969100952,
,,,15.1909734E3,-60.969100952,
,,,15.2402947E3,-60.969100952,
,,,15.2896160E3,-60.969100952,
,,,15.3389373E3,-60.969100952,
,,,15.3882585E3,-58.569103241,
,,,15.4375798E3,-60.969100952,
,,,15.4869011E3,-60.969100952,
,,,15.5362224E3,-60.969100952,
,,,15.5855437E3,-60.969100952,
,,,15.6348650E3,-58.569103241,
,,,15.6841863E3,-60.969100952,
,,,15.7335076E3,-60.969100952,
,,,15.7828289E3,-58.569103241,
,,,15.8321502E3,-54.56910324,
,,,15.8814715E3,-54.56910324,
,,,15.9307927E3,-54.56910324,
,,,15.9801140E3,-60.969100952,
,,,16.0294363E3,-60.969100952,
,,,16.0787576E3,-60.969100952,
,,,16.1280789E3,-60.969100952,
,,,16.1774002E3,-58.569103241,
,,,16.2267215E3,-60.969100952,
,,,16.2760428E3,-60.969100952,
,,,16.3253641E3,-60.969100952,
,,,16.3746853E3,-60.969100952,
,,,16.4240066E3,-60.969100952,
,,,16.4733270E3,-58.569103241,
,,,16.5226492E3,-60.969100952,
,,,16.5719715E3,-60.969100952,
,,,16.6212918E3,-58.569103241,
,,,16.6706141E3,-60.969100952,
,,,16.7199344E3,-60.969100952,
,,,16.7692567E3,-60.969100952,
,,,16.8185770E3,-60.969100952,
,,,16.8678992E3,-60.969100952,
,,,16.9172196E3,-60.969100952,
,,,16.9665418E3,-60.969100952,
,,,17.0158621E3,-60.969100952,
,,,17.0651844E3,-60.969100952,
,,,17.1145047E3,-60.969100952,
,,,17.1638270E3,-60.969100952,
,,,17.2131473E3,-60.969100952,
,,,17.2624696E3,-58.569103241,
,,,17.3117899E3,-60.969100952,
,,,17.3611122E3,-54.56910324,
,,,17.4104325E3,-34.16910172,
,,,17.4597547E3,-29.76910019,
,,,17.5090770E3,-29.36910057,
,,,17.5583973E3,-30.56910133,
,,,17.6077196E3,-39.76910019,
,,,17.6570399E3,-60.969100952,
,,,17.7063622E3,-60.969100952,
,,,17.7556825E3,-60.969100952,
,,,17.8050048E3,-60.969100952,
,,,17.8543251E3,-60.969100952,
,,,17.9036473E3,-60.969100952,
,,,17.9529676E3,-60.969100952,
,,,18.0022899E3,-60.969100952,
,,,18.0516102E3,-60.969100952,
,,,18.1009325E3,-60.969100952,
,,,18.1502528E3,-60.969100952,
,,,18.1995751E3,-60.969100952,
,,,18.2488954E3,-60.969100952,
,,,18.2982177E3,-58.569103241,
,,,18.3475380E3,-60.969100952,
,,,18.3968602E3,-60.969100952,
,,,18.4461806E3,-60.969100952,
,,,18.4955028E3,-60.969100952,
,,,18.5448251E3,-58.569103241,
,,,18.5941454E3,-58.569103241,
,,,18.6434677E3,-55.369102478,
,,,18.6927880E3,-55.369102478,
,,,18.7421103E3,-60.969100952,
,,,18.7914306E3,-60.969100952,
,,,18.8407528E3,-60.969100952,
,,,18.8900732E3,-60.969100952,
,,,18.9393954E3,-60.969100952,
,,,18.9887157E3,-60.969100952,
,,,19.0380380E3,-60.969100952,
,,,19.0873583E3,-60.969100952,
,,,19.1366806E3,-58.569103241,
,,,19.1860009E3,-58.569103241,
,,,19.2353232E3,-60.969100952,
,,,19.2846435E3,-60.969100952,
,,,19.3339658E3,-60.969100952,
,,,19.3832861E3,-60.969100952,
,,,19.4326083E3,-58.569103241,
,,,19.4819306E3,-54.56910324,
,,,19.5312509E3,-55.369102478,
,,,19.5805732E3,-58.569103241,
,,,19.6298935E3,-60.969100952,
,,,19.6792158E3,-60.969100952,
,,,19.7285361E3,-60.969100952,
,,,19.7778584E3,-60.969100952,
,,,19.8271787E3,-60.969100952,
,,,19.8765009E3,-60.969100952,
,,,19.9258213E3,-60.969100952,
,,,19.9751435E3,-60.969100952,
,,,20.0244638E3,-58.569103241,
,,,20.0737861E3,-60.969100952,
,,,20.12310642E3,-60.969100952,
,,,20.17242869E3,-60.969100952,
,,,20.22174901E3,-60.969100952,
,,,20.27107128E3,-60.969100952,
,,,20.32039159E3,-60.969100952,
,,,20.36971386E3,-60.969100952,
,,,20.41903613E3,-58.569103241,
,,,20.46835644E3,-54.56910324,
,,,20.51767871E3,-54.56910324,
,,,20.56699902E3,-55.369102478,
,,,20.61632129E3,-60.969100952,
,,,20.66564161E3,-60.969100952,
,,,20.71496387E3,-60.969100952,
,,,20.76428419E3,-60.969100952,
,,,20.81360646E3,-60.969100952,
,,,20.86292677E3,-60.969100952,
,,,20.91224904E3,-54.56910324,
,,,20.96156935E3,-54.56910324,
,,,21.01089162E3,-58.569103241,
,,,21.06021194E3,-60.969100952,
,,,21.10953421E3,-58.569103241,
,,,21.15885452E3,-60.969100952,
,,,21.20817679E3,-60.969100952,
,,,21.25749710E3,-60.969100952,
,,,21.30681937E3,-60.969100952,
,,,21.35613969E3,-60.969100952,
,,,21.40546195E3,-60.969100952,
,,,21.45478422E3,-60.969100952,
,,,21.50410454E3,-54.56910324,
,,,21.55342680E3,-60.969100952,
,,,21.60274712E3,-60.969100952,
,,,21.65206939E3,-60.969100952,
,,,21.70138970E3,-60.969100952,
,,,21.75071197E3,-55.369102478,
,,,21.80003229E3,-60.969100952,
,,,21.84935455E3,-60.969100952,
,,,21.89867487E3,-60.969100952,
,,,21.94799714E3,-54.56910324,
,,,21.99731745E3,-55.369102478,
,,,22.04663972E3,-60.969100952,
,,,22.09596003E3,-60.969100952,
,,,22.14528230E3,-60.969100952,
,,,22.19460262E3,-60.969100952,
,,,22.24392488E3,-60.969100952,
,,,22.29324520E3,-58.569103241,
,,,22.34256747E3,-60.969100952,
,,,22.39188974E3,-60.969100952,
,,,22.44121005E3,-60.969100952,
,,,22.49053232E3,-60.969100952,
,,,22.53985263E3,-60.969100952,
,,,22.58917490E3,-58.569103241,
,,,22.63849522E3,-58.569103241,
,,,22.68781748E3,-60.969100952,
,,,22.73713780E3,-60.969100952,
,,,22.78646007E3,-60.969100952,
,,,22.83578038E3,-55.369102478,
,,,22.88510265E3,-60.969100952,
,,,22.93442296E3,-60.969100952,
,,,22.98374523E3,-60.969100952,
,,,23.03306555E3,-60.969100952,
,,,23.08238782E3,-60.969100952,
,,,23.13170813E3,-58.569103241,
,,,23.18103040E3,-60.969100952,
,,,23.23035071E3,-60.969100952,
,,,23.27967298E3,-60.969100952,
,,,23.32899525E3,-60.969100952,
,,,23.37831556E3,-60.969100952,
,,,23.42763783E3,-60.969100952,
,,,23.47695815E3,-60.969100952,
,,,23.52628041E3,-58.569103241,
,,,23.57560073E3,-60.969100952,
,,,23.62492300E3,-60.969100952,
,,,23.67424331E3,-60.969100952,
,,,23.72356558E3,-60.969100952,
,,,23.77288589E3,-60.969100952,
,,,23.82220816E3,-60.969100952,
,,,23.87152848E3,-58.569103241,
,,,23.92085075E3,-60.969100952,
,,,23.97017106E3,-55.369102478,
,,,24.01949333E3,-54.56910324,
,,,24.06881364E3,-58.569103241,
,,,24.11813591E3,-60.969100952,
,,,24.16745623E3,-60.969100952,
,,,24.21677849E3,-60.969100952,
,,,24.26609881E3,-60.969100952,
,,,24.31542108E3,-60.969100952,
,,,24.36474334E3,-60.969100952,
,,,24.41406366E3,-40.16910172,
,,,24.46338593E3,-35.76910019,
,,,24.51270624E3,-35.76910019,
,,,24.56202851E3,-36.96910095,
,,,24.61134883E3,-46.96910095,
,,,24.66067109E3,-60.969100952,
,,,24.70999141E3,-60.969100952,
,,,24.75931368E3,-60.969100952,
,,,24.80863399E3,-60.969100952,
,,,24.85795626E3,-60.969100952,
,,,24.90727657E3,-58.569103241,
,,,24.95659884E3,-60.969100952,
,,,25.00591916E3,-60.969100952,
,,,25.05524142E3,-55.369102478,
,,,25.10456174E3,-58.569103241,
,,,25.15388401E3,-55.369102478,
,,,25.20320432E3,-60.969100952,
,,,25.25252659E3,-55.369102478,
,,,25.30184886E3,-54.56910324,
,,,25.35116917E3,-55.369102478,
,,,25.40049144E3,-60.969100952,
,,,25.44981176E3,-54.56910324,
,,,25.49913402E3,-58.569103241,
,,,25.54845434E3,-58.569103241,
,,,25.59777661E3,-60.969100952,
,,,25.64709692E3,-60.969100952,
,,,25.69641919E3,-58.569103241,
,,,25.74573950E3,-55.369102478,
,,,25.79506177E3,-60.969100952,
,,,25.84438209E3,-58.569103241,
,,,25.89370435E3,-60.969100952,
,,,25.94302467E3,-60.969100952,
,,,25.99234694E3,-58.569103241,
,,,26.04166725E3,-60.969100952,
,,,26.09098952E3,-60.969100952,
,,,26.14030984E3,-60.969100952,
,,,26.18963210E3,-60.969100952,
,,,26.23895437E3,-58.569103241,
,,,26.28827469E3,-60.969100952,
,,,26.33759695E3,-60.969100952,
,,,26.38691727E3,-60.969100952,
,,,26.43623954E3,-60.969100952,
,,,26.48555985E3,-58.569103241,
,,,26.53488212E3,-54.56910324,
,,,26.58420243E3,-58.569103241,
,,,26.63352470E3,-58.569103241,
,,,26.68284502E3,-58.569103241,
,,,26.73216729E3,-60.969100952,
,,,26.78148760E3,-60.969100952,
,,,26.83080987E3,-60.969100952,
,,,26.88013018E3,-60.969100952,
,,,26.92945245E3,-55.369102478,
,,,26.97877277E3,-58.569103241,
,,,27.02809503E3,-60.969100952,
,,,27.07741535E3,-60.969100952,
,,,27.12673762E3,-60.969100952,
,,,27.17605793E3,-58.569103241,
,,,27.22538020E3,-60.969100952,
,,,27.27470247E3,-60.969100952,
,,,27.32402278E3,-60.969100952,
,,,27.37334505E3,-60.969100952,
,,,27.42266537E3,-58.569103241,
,,,27.47198763E3,-55.369102478,
,,,27.52130795E3,-54.56910324,
,,,27.57063022E3,-58.569103241,
,,,27.61995053E3,-60.969100952,
,,,27.66927280E3,-60.969100952,
,,,27.71859311E3,-60.969100952,
,,,27.76791538E3,-58.569103241,
,,,27.81723570E3,-60.969100952,
,,,27.86655796E3,-60.969100952,
,,,27.91587828E3,-60.969100952,
,,,27.96520055E3,-55.369102478,
,,,28.01452086E3,-55.369102478,
,,,28.06384313E3,-55.369102478,
,,,28.11316344E3,-58.569103241,
,,,28.16248571E3,-60.969100952,
,,,28.21180798E3,-60.969100952,
,,,28.26112830E3,-60.969100952,
,,,28.31045056E3,-60.969100952,
,,,28.35977088E3,-58.569103241,
,,,28.40909315E3,-60.969100952,
,,,28.45841346E3,-60.969100952,
,,,28.50773573E3,-60.969100952,
,,,28.55705604E3,-58.569103241,
,,,28.60637831E3,-58.569103241,
,,,28.65569863E3,-55.369102478,
,,,28.70502089E3,-58.569103241,
,,,28.75434121E3,-60.969100952,
,,,28.80366348E3,-60.969100952,
,,,28.85298379E3,-60.969100952,
,,,28.90230606E3,-60.969100952,
,,,28.95162638E3,-58.569103241,
,,,29.00094864E3,-58.569103241,
,,,29.05026896E3,-60.969100952,
,,,29.09959123E3,-60.969100952,
,,,29.14891349E3,-58.569103241,
,,,29.19823381E3,-60.969100952,
,,,29.24755608E3,-60.969100952,
,,,29.29687639E3,-60.969100952,
,,,29.34619866E3,-60.969100952,
,,,29.39551897E3,-60.969100952,
,,,29.44484124E3,-60.969100952,
,,,29.49416156E3,-58.569103241,
,,,29.54348383E3,-55.369102478,
,,,29.59280414E3,-55.369102478,
,,,29.64212641E3,-60.969100952,
,,,29.69144672E3,-58.569103241,
,,,29.74076899E3,-58.569103241,
,,,29.79008931E3,-58.569103241,
,,,29.83941157E3,-60.969100952,
,,,29.88873189E3,-60.969100952,
,,,29.93805416E3,-60.969100952,
,,,29.98737447E3,-60.969100952,
,,,30.03669674E3,-60.969100952,
,,,30.08601705E3,-60.969100952,
,,,30.13533932E3,-58.569103241,
,,,30.18466159E3,-60.969100952,
,,,30.23398190E3,-60.969100952,
,,,30.28330417E3,-58.569103241,
,,,30.33262449E3,-58.569103241,
,,,30.38194676E3,-58.569103241,
,,,30.43126707E3,-60.969100952,
,,,30.48058934E3,-60.969100952,
,,,30.52990965E3,-60.969100952,
,,,30.57923192E3,-60.969100952,
,,,30.62855224E3,-60.969100952,
,,,30.67787450E3,-58.569103241,
,,,30.72719482E3,-60.969100952,
,,,30.77651709E3,-60.969100952,
,,,30.82583740E3,-58.569103241,
,,,30.87515967E3,-60.969100952,
,,,30.92447998E3,-60.969100952,
,,,30.97380225E3,-60.969100952,
,,,31.02312257E3,-60.969100952,
,,,31.07244484E3,-60.969100952,
