lab2/señal cuadrada/offset/FFT5 (2).csv

Record Length,1024,Points,0.0,-1.3691007,
Sample Interval,123.3033447,Hz,123.3033447,1.4308994,
Trigger Point,0.0,Samples,246.60668945,-5.36910057,
,,,369.91003418,-36.16910172,
,,,493.213378906,-34.96910095,
,,,616.516723633,-35.76910019,
Source,MATH,,739.820068359,-38.96910095,
Vertical Units,dB,,863.123413086,-42.96910095,
Vertical Scale,10.0000001,,986.426757813,-44.56909943,
Vertical Offset,-20,9691,,1.1097302E3,-47.36910248,
Horizontal Units,Hz,,1.2330335E3,-54.56910324,
Horizontal Scale,12.6262631E3,,1.3563369E3,-48.56910324,
Pt Fmt,Y,,1.4796402E3,-46.96910095,
Yzero,0.0,,1.6029436E3,-45.76910019,
,,,1.7262469E3,-48.96910095,
,,,1.8495503E3,-42.96910095,
Note,TDS 1012B - 11:30:13 a. m.   30/07/2025,,1.9728536E3,-42.96910095,
,,,2.0961568E3,-42.96910095,
,,,2.2194603E3,-48.96910095,
,,,2.3427638E3,-55.369102478,
,,,2.4660670E3,-60.969100952,
,,,2.5893702E3,-55.369102478,
,,,2.7126737E3,-42.96910095,
,,,2.83597719E3,-38.56909943,
,,,2.95928041E3,-32.16910172,
,,,3.08258364E3,-51.36910248,
,,,3.20588712E3,-14.9691010,
,,,3.32919059E3,-3.76910067,
,,,3.45249382E3,-2.1691008,
,,,3.57579704E3,-2.1691008,
,,,3.69910052E3,-5.36910057,
,,,3.82240399E3,-20.56910133,
,,,3.94570722E3,-48.96910095,
,,,4.06901045E3,-35.36910248,
,,,4.19231368E3,-45.36910248,
,,,4.31561739E3,-40.16910172,
,,,4.43892062E3,-41.36910248,
,,,4.56222385E3,-39.76910019,
,,,4.68552757E3,-43.76910019,
,,,4.80883079E3,-50.16910172,
,,,4.93213402E3,-58.569103241,
,,,5.05543725E3,-60.969100952,
,,,5.17874048E3,-54.56910324,
,,,5.30204420E3,-45.36910248,
,,,5.42534743E3,-42.16910172,
,,,5.54865065E3,-42.16910172,
,,,5.67195437E3,-44.56909943,
,,,5.79525760E3,-44.56909943,
,,,5.91856083E3,-42.96910095,
,,,6.04186406E3,-42.16910172,
,,,6.16516729E3,-47.36910248,
,,,6.28847100E3,-47.36910248,
,,,6.41177423E3,-38.16910172,
,,,6.53507746E3,-48.96910095,
,,,6.65838118E3,-27.36910057,
,,,6.78168440E3,-8.569100380,
,,,6.90498763E3,-4.16910076,
,,,7.02829086E3,-3.76910067,
,,,7.15159409E3,-4.96910095,
,,,7.27489781E3,-14.1691008,
,,,7.398201035E3,-37.36910248,
,,,7.521504264E3,-44.56909943,
,,,7.644807980E3,-58.569103241,
,,,7.768111209E3,-43.76910019,
,,,7.891414437E3,-39.76910019,
,,,8.014717666E3,-39.36910248,
,,,8.138020894E3,-41.36910248,
,,,8.261324611E3,-44.16910172,
,,,8.384627351E3,-45.76910019,
,,,8.507931068E3,-45.76910019,
,,,8.631234785E3,-48.96910095,
,,,8.754537525E3,-58.569103241,
,,,8.877841242E3,-46.96910095,
,,,9.001144959E3,-45.36910248,
,,,9.124447699E3,-45.76910019,
,,,9.247751416E3,-43.36910248,
,,,9.371055133E3,-39.76910019,
,,,9.494357873E3,-38.96910095,
,,,9.617661590E3,-38.96910095,
,,,9.740964330E3,-47.36910248,
,,,9.864268047E3,-55.369102478,
,,,9.987571763E3,-52.56910324,
,,,10.1108745E3,-42.16910172,
,,,10.2341782E3,-16.9691010,
,,,10.3574810E3,-8.569100380,
,,,10.4807847E3,-7.36910057,
,,,10.6040884E3,-7.769100666,
,,,10.7273911E3,-12.9691010,
,,,10.8506949E3,-51.36910248,
,,,10.9739986E3,-35.76910019,
,,,11.0973013E3,-39.36910248,
,,,11.2206050E3,-43.36910248,
,,,11.3439087E3,-47.36910248,
,,,11.4672115E3,-44.96910095,
,,,11.5905152E3,-43.76910019,
,,,11.7138179E3,-46.96910095,
,,,11.8371217E3,-45.36910248,
,,,11.9604254E3,-42.56909943,
,,,12.0837281E3,-42.56909943,
,,,12.2070318E3,-47.36910248,
,,,12.3303346E3,-58.569103241,
,,,12.4536383E3,-60.969100952,
,,,12.5769420E3,-60.969100952,
,,,12.7002447E3,-54.56910324,
,,,12.8235485E3,-43.76910019,
,,,12.9468522E3,-41.36910248,
,,,13.0701549E3,-39.76910019,
,,,13.1934586E3,-42.96910095,
,,,13.3167624E3,-41.36910248,
,,,13.4400651E3,-40.96910095,
,,,13.5633688E3,-36.96910095,
,,,13.6866715E3,-34.16910172,
,,,13.8099753E3,-16.9691010,
,,,13.9332790E3,-14.1691008,
,,,14.0565817E3,-14.1691008,
,,,14.1798854E3,-16.5691013,
,,,14.3031882E3,-33.36910248,
,,,14.4264919E3,-32.16910172,
,,,14.5497956E3,-34.96910095,
,,,14.6730984E3,-36.16910172,
,,,14.7964021E3,-47.36910248,
,,,14.9197058E3,-58.569103241,
,,,15.0430085E3,-60.969100952,
,,,15.1663122E3,-60.969100952,
,,,15.2896160E3,-46.96910095,
,,,15.4129187E3,-41.36910248,
,,,15.5362224E3,-41.36910248,
,,,15.6595252E3,-42.56909943,
,,,15.7828289E3,-46.96910095,
,,,15.9061326E3,-47.36910248,
,,,16.0294353E3,-47.36910248,
,,,16.1527390E3,-54.56910324,
,,,16.2760418E3,-55.369102478,
,,,16.3993465E3,-46.96910095,
,,,16.5226492E3,-47.36910248,
,,,16.6459520E3,-46.96910095,
,,,16.7692547E3,-41.36910248,
,,,16.8925594E3,-36.56909943,
,,,17.0158621E3,-35.76910019,
,,,17.1391649E3,-36.16910172,
,,,17.2624696E3,-45.76910019,
,,,17.3857723E3,-60.969100952,
,,,17.5090751E3,-58.569103241,
,,,17.6323797E3,-60.969100952,
,,,17.7556825E3,-42.16910172,
,,,17.8789852E3,-34.96910095,
,,,18.0022899E3,-34.56909943,
,,,18.1255927E3,-35.36910248,
,,,18.2488954E3,-39.76910019,
,,,18.3722001E3,-43.36910248,
,,,18.4955028E3,-44.56909943,
,,,18.6188056E3,-45.76910019,
,,,18.7421103E3,-60.969100952,
,,,18.8654130E3,-47.36910248,
,,,18.9887157E3,-45.76910019,
,,,19.1120185E3,-44.56909943,
,,,19.2353232E3,-45.76910019,
,,,19.3586259E3,-43.36910248,
,,,19.4819287E3,-41.36910248,
,,,19.6052334E3,-42.96910095,
,,,19.7285361E3,-48.96910095,
,,,19.8518388E3,-58.569103241,
,,,19.9751435E3,-60.969100952,
,,,20.09844627E3,-60.969100952,
,,,20.22174901E3,-43.36910248,
,,,20.34505370E3,-37.36910248,
,,,20.46835644E3,-34.96910095,
,,,20.59165918E3,-37.36910248,
,,,20.71496192E3,-27.36910057,
,,,20.83826661E3,-19.3691006,
,,,20.96156935E3,-17.7691002,
,,,21.08487210E3,-17.7691002,
,,,21.20817679E3,-20.96910095,
,,,21.33147953E3,-33.36910248,
,,,21.45478227E3,-38.56909943,
,,,21.57808696E3,-36.96910095,
,,,21.70138970E3,-39.76910019,
,,,21.82469244E3,-39.76910019,
,,,21.94799714E3,-39.36910248,
,,,22.07129988E3,-39.76910019,
,,,22.19460262E3,-43.76910019,
,,,22.31790731E3,-51.36910248,
,,,22.44121005E3,-55.369102478,
,,,22.56451279E3,-58.569103241,
,,,22.68781748E3,-60.969100952,
,,,22.81112022E3,-47.36910248,
,,,22.93442296E3,-42.16910172,
,,,23.05772570E3,-42.16910172,
,,,23.18103040E3,-44.56909943,
,,,23.30433314E3,-48.56910324,
,,,23.42763588E3,-45.36910248,
,,,23.55094057E3,-44.16910172,
,,,23.67424331E3,-52.56910324,
,,,23.79754605E3,-46.16910172,
,,,23.92085075E3,-39.36910248,
,,,24.04415349E3,-43.36910248,
,,,24.16745623E3,-33.76910019,
,,,24.29076092E3,-18.9691010,
,,,24.41406366E3,-14.9691010,
,,,24.53736640E3,-14.9691010,
,,,24.66066914E3,-16.1691017,
,,,24.78397383E3,-26.56910133,
,,,24.90727657E3,-44.96910095,
,,,25.03057931E3,-60.969100952,
,,,25.15388401E3,-54.56910324,
,,,25.27718675E3,-45.76910019,
,,,25.40048949E3,-40.16910172,
,,,25.52379418E3,-39.76910019,
,,,25.64709692E3,-40.96910095,
,,,25.77039966E3,-45.36910248,
,,,25.89370435E3,-47.36910248,
,,,26.01700710E3,-47.36910248,
,,,26.14030984E3,-48.96910095,
,,,26.26361453E3,-60.969100952,
,,,26.38691727E3,-49.36910248,
,,,26.51022001E3,-45.76910019,
,,,26.63352470E3,-45.76910019,
,,,26.75682744E3,-45.76910019,
,,,26.88013018E3,-41.36910248,
,,,27.00343292E3,-39.76910019,
,,,27.12673762E3,-40.56909943,
,,,27.25004036E3,-48.96910095,
,,,27.37334310E3,-58.569103241,
,,,27.49664779E3,-58.569103241,
,,,27.61995053E3,-60.969100952,
,,,27.74325327E3,-24.56910133,
,,,27.86655796E3,-16.9691010,
,,,27.98986070E3,-16.1691017,
,,,28.11316344E3,-16.1691017,
,,,28.23646814E3,-22.16910172,
,,,28.35977088E3,-40.96910095,
,,,28.48307362E3,-38.16910172,
,,,28.60637636E3,-38.96910095,
,,,28.72968105E3,-44.56909943,
,,,28.85298379E3,-46.16910172,
,,,28.97628653E3,-42.96910095,
,,,29.09959123E3,-43.76910019,
,,,29.22289397E3,-44.96910095,
,,,29.34619671E3,-42.96910095,
,,,29.46950140E3,-41.76910019,
,,,29.59280414E3,-42.96910095,
,,,29.71610688E3,-48.56910324,
,,,29.83941157E3,-58.569103241,
,,,29.96271431E3,-60.969100952,
,,,30.08601705E3,-58.569103241,
,,,30.20932175E3,-50.16910172,
,,,30.33262449E3,-43.36910248,
,,,30.45592723E3,-40.16910172,
,,,30.57923192E3,-40.16910172,
,,,30.70253466E3,-42.56909943,
,,,30.82583740E3,-41.76910019,
,,,30.94914014E3,-40.56909943,
,,,31.07244484E3,-38.56909943,
,,,31.19574758E3,-42.16910172,
,,,31.31905032E3,-23.76910019,
,,,31.44235501E3,-21.36910057,
,,,31.56565775E3,-20.96910095,
,,,31.68896049E3,-24.16910172,
,,,31.81226518E3,-50.16910172,
,,,31.93556792E3,-32.56909943,
,,,32.05887066E3,-33.76910019,
,,,32.18217536E3,-35.36910248,
,,,32.30547810E3,-44.16910172,
,,,32.42878084E3,-60.969100952,
,,,32.55208358E3,-60.969100952,
,,,32.67538827E3,-54.56910324,
,,,32.79869296E3,-45.36910248,
,,,32.92199375E3,-42.16910172,
,,,33.04529844E3,-41.36910248,
,,,33.16860314E3,-44.16910172,
,,,33.29190393E3,-44.96910095,
,,,33.41520862E3,-45.36910248,
,,,33.53850941E3,-45.36910248,
,,,33.66181410E3,-51.36910248,
,,,33.78511879E3,-54.56910324,
,,,33.90841958E3,-44.96910095,
,,,34.03172427E3,-43.36910248,
,,,34.15502897E3,-42.56909943,
,,,34.27832975E3,-39.36910248,
,,,34.40163445E3,-36.56909943,
,,,34.52493914E3,-36.16910172,
,,,34.64823993E3,-36.96910095,
,,,34.77154462E3,-47.36910248,
,,,34.89484931E3,-60.969100952,
,,,35.01815010E3,-60.969100952,
,,,35.14145479E3,-60.969100952,
,,,35.26475949E3,-41.36910248,
,,,35.38806027E3,-34.16910172,
,,,35.51136497E3,-33.36910248,
,,,35.63466966E3,-34.56909943,
,,,35.75797045E3,-38.56909943,
,,,35.88127514E3,-42.16910172,
,,,36.00457984E3,-43.36910248,
,,,36.12788062E3,-44.56909943,
,,,36.25118532E3,-58.569103241,
,,,36.37449001E3,-45.76910019,
,,,36.49779080E3,-43.36910248,
,,,36.62109549E3,-45.76910019,
,,,36.74440018E3,-47.36910248,
,,,36.86770097E3,-44.56909943,
,,,36.99100566E3,-43.36910248,
,,,37.11431036E3,-43.36910248,
,,,37.23761114E3,-49.36910248,
,,,37.36091584E3,-54.56910324,
,,,37.48422053E3,-58.569103241,
,,,37.60752132E3,-60.969100952,
,,,37.73082601E3,-44.96910095,
,,,37.85412680E3,-36.96910095,
,,,37.97743149E3,-35.36910248,
,,,38.10073618E3,-36.96910095,
,,,38.22403697E3,-30.96910095,
,,,38.34734167E3,-24.56910133,
,,,38.47064636E3,-22.96910095,
,,,38.59394715E3,-23.36910057,
,,,38.71725184E3,-26.56910133,
,,,38.84055653E3,-36.56909943,
,,,38.96385732E3,-38.16910172,
,,,39.08716201E3,-38.16910172,
,,,39.21046671E3,-41.76910019,
,,,39.33376749E3,-40.56909943,
,,,39.45707219E3,-38.96910095,
,,,39.58037688E3,-38.56909943,
,,,39.70367767E3,-41.76910019,
,,,39.82698236E3,-52.56910324,
,,,39.95028705E3,-60.969100952,
,,,40.07358784E3,-54.56910324,
,,,40.19689253E3,-50.16910172,
,,,40.32019723E3,-43.76910019,
,,,40.44349801E3,-42.16910172,
,,,40.56680271E3,-42.16910172,
,,,40.69010740E3,-45.36910248,
,,,40.81340819E3,-46.56909943,
,,,40.93671288E3,-44.56909943,
,,,41.06001758E3,-42.96910095,
,,,41.18331836E3,-48.96910095,
,,,41.30662306E3,-47.36910248,
,,,41.42992384E3,-41.76910019,
,,,41.55322854E3,-43.36910248,
,,,41.67653323E3,-34.96910095,
,,,41.79983402E3,-22.96910095,
,,,41.92313871E3,-19.3691006,
,,,42.04644340E3,-19.3691006,
,,,42.16974419E3,-21.36910057,
,,,42.29304888E3,-32.16910172,
,,,42.41635358E3,-54.56910324,
,,,42.53965436E3,-51.36910248,
,,,42.66295906E3,-55.369102478,
,,,42.78626375E3,-41.76910019,
,,,42.90956454E3,-39.36910248,
,,,43.03286923E3,-38.96910095,
,,,43.15617392E3,-40.16910172,
,,,43.27947471E3,-44.16910172,
,,,43.40277941E3,-45.36910248,
,,,43.52608410E3,-47.36910248,
,,,43.64938489E3,-48.96910095,
,,,43.77268958E3,-54.56910324,
,,,43.89599427E3,-45.76910019,
,,,44.01929506E3,-44.16910172,
,,,44.14259975E3,-44.56909943,
,,,44.26590445E3,-44.56909943,
,,,44.38920523E3,-40.56909943,
,,,44.51250993E3,-39.76910019,
,,,44.63581462E3,-41.36910248,
,,,44.75911541E3,-48.96910095,
,,,44.88242010E3,-60.969100952,
,,,45.00572479E3,-60.969100952,
,,,45.12902558E3,-60.969100952,
,,,45.25233027E3,-27.76910019,
,,,45.37563497E3,-20.96910095,
,,,45.49893575E3,-20.16910172,
,,,45.62224045E3,-20.56910133,
,,,45.74554124E3,-27.76910019,
,,,45.86884593E3,-37.76910019,
,,,45.99215062E3,-37.36910248,
,,,46.11545141E3,-37.76910019,
,,,46.23875610E3,-45.76910019,
,,,46.36206080E3,-44.96910095,
,,,46.48536158E3,-42.96910095,
,,,46.60866628E3,-42.96910095,
,,,46.73197097E3,-44.56909943,
,,,46.85527176E3,-42.96910095,
,,,46.97857645E3,-41.76910019,
,,,47.10188114E3,-42.96910095,
,,,47.22518193E3,-48.96910095,
,,,47.34848662E3,-60.969100952,
,,,47.47179132E3,-58.569103241,
,,,47.59509210E3,-58.569103241,
,,,47.71839680E3,-50.16910172,
,,,47.84170149E3,-42.56909943,
,,,47.96500228E3,-41.36910248,
,,,48.08830697E3,-40.16910172,
,,,48.21161166E3,-41.76910019,
,,,48.33491245E3,-41.76910019,
,,,48.45821715E3,-41.36910248,
,,,48.58152184E3,-39.76910019,
,,,48.70482263E3,-47.36910248,
,,,48.82812732E3,-27.36910057,
,,,48.95143201E3,-25.36910057,
,,,49.07473280E3,-24.96910095,
,,,49.19803749E3,-28.56910133,
,,,49.32133828E3,-40.56909943,
,,,49.44464297E3,-32.96910095,
,,,49.56794767E3,-33.76910019,
,,,49.69124845E3,-35.76910019,
,,,49.81455315E3,-50.16910172,
,,,49.93785784E3,-60.969100952,
,,,50.06115863E3,-60.969100952,
,,,50.18446332E3,-58.569103241,
,,,50.30776801E3,-46.56909943,
,,,50.43106880E3,-40.96910095,
,,,50.55437349E3,-40.96910095,
,,,50.67767819E3,-43.76910019,
,,,50.80097898E3,-47.36910248,
,,,50.92428367E3,-47.36910248,
,,,51.04758836E3,-46.16910172,
,,,51.17088915E3,-54.56910324,
,,,51.29419384E3,-51.76910019,
,,,51.41749854E3,-45.36910248,
,,,51.54079932E3,-43.76910019,
,,,51.66410402E3,-43.76910019,
,,,51.78740871E3,-39.76910019,
,,,51.91070950E3,-36.96910095,
,,,52.03401419E3,-36.16910172,
,,,52.15731888E3,-38.16910172,
,,,52.28061967E3,-51.36910248,
,,,52.40392436E3,-55.369102478,
,,,52.52722906E3,-60.969100952,
,,,52.65052984E3,-55.369102478,
,,,52.77383454E3,-40.56909943,
,,,52.89713923E3,-33.36910248,
,,,53.02044002E3,-32.96910095,
,,,53.14374471E3,-33.76910019,
,,,53.26704941E3,-38.56909943,
,,,53.39035019E3,-43.36910248,
,,,53.51365489E3,-42.16910172,
,,,53.63695567E3,-44.56909943,
,,,53.76026037E3,-60.969100952,
,,,53.88356506E3,-47.36910248,
,,,54.00686585E3,-45.76910019,
,,,54.13017054E3,-47.36910248,
,,,54.25347523E3,-47.36910248,
,,,54.37677602E3,-43.36910248,
,,,54.50008071E3,-41.36910248,
,,,54.623385407E3,-42.16910172,
,,,54.746686194E3,-48.56910324,
,,,54.869990887E3,-52.56910324,
,,,54.993295581E3,-60.969100952,
,,,55.116596368E3,-58.569103241,
,,,55.239901061E3,-44.56909943,
,,,55.363205755E3,-37.76910019,
,,,55.486506542E3,-36.16910172,
,,,55.609811235E3,-36.56909943,
,,,55.733115928E3,-32.56909943,
,,,55.856416716E3,-27.36910057,
,,,55.979721409E3,-26.16910172,
,,,56.103026102E3,-26.16910172,
,,,56.226326889E3,-30.16910172,
,,,56.349631583E3,-37.36910248,
,,,56.472936276E3,-37.36910248,
,,,56.596237063E3,-37.36910248,
,,,56.719541757E3,-38.96910095,
,,,56.842846450E3,-39.36910248,
,,,56.966147237E3,-38.96910095,
,,,57.089451930E3,-40.16910172,
,,,57.212752717E3,-44.16910172,
,,,57.336057411E3,-60.969100952,
,,,57.459362104E3,-58.569103241,
,,,57.582662891E3,-60.969100952,
,,,57.705967585E3,-54.56910324,
,,,57.829272278E3,-43.76910019,
,,,57.952573065E3,-41.36910248,
,,,58.075877758E3,-41.36910248,
,,,58.199182452E3,-44.16910172,
,,,58.322483239E3,-46.56909943,
,,,58.445787932E3,-44.56909943,
,,,58.569092626E3,-43.76910019,
,,,58.692393413E3,-50.16910172,
,,,58.815698106E3,-47.36910248,
,,,58.939002799E3,-41.36910248,
,,,59.062303587E3,-43.76910019,
,,,59.185608280E3,-36.16910172,
,,,59.308912973E3,-25.76910019,
,,,59.432213760E3,-22.56910133,
,,,59.555518454E3,-22.56910133,
,,,59.678823147E3,-24.56910133,
,,,59.802123934E3,-36.16910172,
,,,59.925428628E3,-58.569103241,
,,,60.048733321E3,-54.56910324,
,,,60.172034108E3,-60.969100952,
,,,60.295338801E3,-44.96910095,
,,,60.418643495E3,-39.36910248,
,,,60.541944282E3,-38.96910095,
,,,60.665248975E3,-41.36910248,
,,,60.788553669E3,-44.96910095,
,,,60.911854456E3,-44.96910095,
,,,61.035159149E3,-46.16910172,
,,,61.158463842E3,-50.16910172,
,,,61.281764629E3,-60.969100952,
,,,61.405069323E3,-48.56910324,
,,,61.528370110E3,-45.36910248,
,,,61.651674803E3,-44.56909943,
,,,61.774979497E3,-44.56909943,
,,,61.898280284E3,-41.36910248,
,,,62.021584977E3,-40.56909943,
,,,62.144889670E3,-42.16910172,
,,,62.268190458E3,-51.76910019,
,,,62.391495151E3,-60.969100952,
,,,62.514799844E3,-60.969100952,
,,,62.638100631E3,-60.969100952,
,,,62.761405325E3,-30.16910172,
,,,62.884710018E3,-23.76910019,
,,,63.008010805E3,-23.36910057,
,,,63.131315499E3,-23.76910019,
,,,63.254620192E3,-32.56909943,
,,,63.377920979E3,-36.96910095,
,,,63.501225672E3,-37.36910248,
,,,63.624530366E3,-37.76910019,
,,,63.747831153E3,-48.96910095,
,,,63.871135846E3,-44.56909943,
,,,63.994440540E3,-42.16910172,
,,,64.117741327E3,-42.16910172,
,,,64.241046020E3,-45.76910019,
,,,64.364350713E3,-42.96910095,
,,,64.487651500E3,-42.96910095,
,,,64.610956194E3,-44.16910172,
,,,64.734260887E3,-48.96910095,
,,,64.857561674E3,-60.969100952,
,,,64.980866368E3,-60.969100952,
,,,65.104167155E3,-60.969100952,
,,,65.227471848E3,-51.76910019,
,,,65.350776541E3,-43.76910019,
,,,65.474077329E3,-40.96910095,
,,,65.597385928E3,-41.76910019,
,,,65.720682809E3,-42.96910095,
,,,65.843987502E3,-42.96910095,
,,,65.967292196E3,-41.36910248,
,,,66.090596889E3,-40.16910172,
,,,66.213901582E3,-50.16910172,
,,,66.337206276E3,-29.76910019,
,,,66.460503157E3,-27.76910019,
,,,66.583807850E3,-27.36910057,
,,,66.707112543E3,-32.16910172,
,,,66.830417237E3,-37.76910019,
,,,66.953721930E3,-32.56909943,
,,,67.077018811E3,-32.96910095,
,,,67.200323504E3,-34.96910095,
,,,67.323628198E3,-46.16910172,
,,,67.446932891E3,-54.56910324,
,,,67.570237584E3,-58.569103241,
,,,67.693542278E3,-51.36910248,
,,,67.816839159E3,-44.56909943,
,,,67.940143852E3,-40.96910095,
,,,68.063448545E3,-40.96910095,
,,,68.186753239E3,-43.76910019,
,,,68.310057932E3,-45.36910248,
,,,68.433362625E3,-43.76910019,
,,,68.556659506E3,-43.76910019,
,,,68.679964200E3,-50.16910172,
,,,68.803268893E3,-58.569103241,
,,,68.926573586E3,-47.36910248,
,,,69.049878280E3,-45.36910248,
,,,69.173182973E3,-44.16910172,
,,,69.296479854E3,-40.56909943,
,,,69.419784547E3,-36.96910095,
,,,69.543089241E3,-36.56909943,
,,,69.666393934E3,-38.56909943,
,,,69.789698627E3,-50.16910172,
,,,69.913003321E3,-58.569103241,
,,,70.036300202E3,-60.969100952,
,,,70.159604895E3,-58.569103241,
,,,70.282909588E3,-36.96910095,
,,,70.406214282E3,-31.76910019,
,,,70.529518975E3,-32.16910172,
,,,70.652823668E3,-33.36910248,
,,,70.776120549E3,-39.36910248,
,,,70.899425243E3,-42.96910095,
,,,71.022729936E3,-42.16910172,
,,,71.146034629E3,-44.56909943,
,,,71.269339323E3,-60.969100952,
,,,71.392636203E3,-47.36910248,
,,,71.515940897E3,-44.56909943,
,,,71.639245590E3,-45.76910019,
,,,71.762550284E3,-44.56909943,
,,,71.885854977E3,-42.16910172,
,,,72.009159670E3,-42.16910172,
,,,72.132456551E3,-43.36910248,
,,,72.255761244E3,-51.76910019,
,,,72.379065938E3,-60.969100952,
,,,72.502370631E3,-60.969100952,
,,,72.625675325E3,-54.56910324,
,,,72.748980018E3,-44.56909943,
,,,72.872276899E3,-37.76910019,
,,,72.995581592E3,-37.36910248,
,,,73.118886285E3,-37.76910019,
,,,73.242190979E3,-34.56909943,
,,,73.365495672E3,-29.76910019,
,,,73.488800366E3,-28.56910133,
,,,73.612097246E3,-28.96910095,
,,,73.735401940E3,-32.56909943,
,,,73.858706633E3,-36.16910172,
,,,73.982011326E3,-35.36910248,
,,,74.105316020E3,-36.16910172,
,,,74.228620713E3,-38.56909943,
,,,74.351917594E3,-39.36910248,
,,,74.475222287E3,-38.96910095,
,,,74.598526981E3,-39.76910019,
,,,74.721831674E3,-43.36910248,
,,,74.845136367E3,-54.56910324,
,,,74.968441061E3,-60.969100952,
,,,75.091737942E3,-60.969100952,
,,,75.215042635E3,-60.969100952,
,,,75.338347328E3,-46.56909943,
,,,75.461652022E3,-42.16910172,
,,,75.584956715E3,-41.36910248,
,,,75.708253596E3,-45.36910248,
,,,75.831558289E3,-46.16910172,
,,,75.954862983E3,-44.16910172,
,,,76.078167676E3,-44.56909943,
,,,76.201472369E3,-58.569103241,
,,,76.324777063E3,-44.56909943,
,,,76.448073944E3,-39.76910019,
,,,76.571378637E3,-40.16910172,
,,,76.694683330E3,-36.16910172,
,,,76.817988024E3,-26.96910095,
,,,76.941292717E3,-24.96910095,
,,,77.064597410E3,-24.96910095,
,,,77.187894291E3,-26.96910095,
,,,77.311198985E3,-40.16910172,
,,,77.434503678E3,-60.969100952,
,,,77.557808371E3,-60.969100952,
,,,77.681113065E3,-60.969100952,
,,,77.804417758E3,-43.36910248,
,,,77.927714639E3,-38.96910095,
,,,78.051019332E3,-38.56909943,
